\contentsline {section}{\numberline {1}Ejercicios Octave-Latex}{1}{section.1}
\contentsline {subsection}{\numberline {1.1}Calculos Elementales}{1}{subsection.1.1}
\contentsline {subsection}{\numberline {1.2}Creando una matriz}{1}{subsection.1.2}
\contentsline {subsection}{\numberline {1.3}Aritmetica en matrices}{2}{subsection.1.3}
\contentsline {subsection}{\numberline {1.4}Resolviendo sistemas de ecuaciones lineales}{3}{subsection.1.4}
\contentsline {subsection}{\numberline {1.5}Integrando ecuaciones diferenciales}{3}{subsection.1.5}
\contentsline {subsection}{\numberline {1.6}Producir una salida grafica}{5}{subsection.1.6}
\contentsline {section}{\numberline {2}Proyecto Clase - Interes}{5}{section.2}
\contentsline {section}{\numberline {3}Resumen del articulo / Carrera}{8}{section.3}
\contentsline {section}{\numberline {4}Repositorio}{9}{section.4}
