\relax 
\providecommand\hyper@newdestlabel[2]{}
\providecommand\HyperFirstAtBeginDocument{\AtBeginDocument}
\HyperFirstAtBeginDocument{\ifx\hyper@anchor\@undefined
\global\let\oldcontentsline\contentsline
\gdef\contentsline#1#2#3#4{\oldcontentsline{#1}{#2}{#3}}
\global\let\oldnewlabel\newlabel
\gdef\newlabel#1#2{\newlabelxx{#1}#2}
\gdef\newlabelxx#1#2#3#4#5#6{\oldnewlabel{#1}{{#2}{#3}}}
\AtEndDocument{\ifx\hyper@anchor\@undefined
\let\contentsline\oldcontentsline
\let\newlabel\oldnewlabel
\fi}
\fi}
\global\let\hyper@last\relax 
\gdef\HyperFirstAtBeginDocument#1{#1}
\providecommand\HyField@AuxAddToFields[1]{}
\providecommand\HyField@AuxAddToCoFields[2]{}
\@writefile{toc}{\contentsline {section}{\numberline {1}Ejercicios Octave-Latex}{1}{section.1}}
\@writefile{toc}{\contentsline {subsection}{\numberline {1.1}Calculos Elementales}{1}{subsection.1.1}}
\@writefile{toc}{\contentsline {subsection}{\numberline {1.2}Creando una matriz}{1}{subsection.1.2}}
\@writefile{toc}{\contentsline {subsection}{\numberline {1.3}Aritmetica en matrices}{2}{subsection.1.3}}
\@writefile{toc}{\contentsline {subsection}{\numberline {1.4}Resolviendo sistemas de ecuaciones lineales}{3}{subsection.1.4}}
\@writefile{toc}{\contentsline {subsection}{\numberline {1.5}Integrando ecuaciones diferenciales}{3}{subsection.1.5}}
\@writefile{toc}{\contentsline {subsection}{\numberline {1.6}Producir una salida grafica}{5}{subsection.1.6}}
\@writefile{toc}{\contentsline {section}{\numberline {2}Proyecto Clase - Interes}{5}{section.2}}
\@writefile{toc}{\contentsline {section}{\numberline {3}Resumen del articulo / Carrera}{8}{section.3}}
\@writefile{toc}{\contentsline {section}{\numberline {4}Repositorio}{9}{section.4}}
